com/example/homework02criteriaapi/entities/QEmployee.class
com/example/homework02criteriaapi/entities/QDepartment.class
com/example/homework02criteriaapi/entities/QAccount.class
com/example/homework02criteriaapi/entities/QAddress.class
