/Users/sbc/Desktop/homework-criteria-api/src/main/java/com/example/homework02criteriaapi/entities/Account.java
/Users/sbc/Desktop/homework-criteria-api/src/main/java/com/example/homework02criteriaapi/controller/EmployeeRestController.java
/Users/sbc/Desktop/homework-criteria-api/src/main/java/com/example/homework02criteriaapi/service/EmployeeService.java
/Users/sbc/Desktop/homework-criteria-api/src/main/java/com/example/homework02criteriaapi/Homework02CriteriaApiApplication.java
/Users/sbc/Desktop/homework-criteria-api/src/main/java/com/example/homework02criteriaapi/enums/Gender.java
/Users/sbc/Desktop/homework-criteria-api/src/main/java/com/example/homework02criteriaapi/entities/Department.java
/Users/sbc/Desktop/homework-criteria-api/src/main/java/com/example/homework02criteriaapi/reporsitories/EmployeeReporsitories.java
/Users/sbc/Desktop/homework-criteria-api/src/main/java/com/example/homework02criteriaapi/entities/Address.java
/Users/sbc/Desktop/homework-criteria-api/src/main/java/com/example/homework02criteriaapi/entities/Employee.java
